





-0.2510
50.5351
5.6310

-0.2510
50.5351
5.6955

-0.2900
50.5335
5.6955

-0.2900
50.5335
5.6310


0.0763
42.5058
5.6310

0.0763
42.5058
5.6955

0.0372
42.5042
5.6955

0.0372
42.5042
5.6310


0.1102
41.6730
6.5357

0.1102
41.6730
6.5984

0.0712
41.6698
6.5984

0.0712
41.6698
6.5357


0.4999
38.9991
6.5357

0.4999
38.9991
6.5984

0.4618
38.9896
6.5984

0.4618
38.9896
6.5357


1.4219
36.4592 
6.5357

1.4219
36.4592
6.5984

1.3866
36.4421
6.5984

1.3866
36.4421
6.5357


2.8383
34.1581
6.5357

2.8383
34.1581 
6.5984

2.8071
34.1342
6.5984

2.8071
34.1342
6.5357


4.6906
32.1907
6.5357

4.6906
32.1907
6.5984

4.6649
32.1610
6.5984

4.6649
32.1610
6.5357


6.9023
30.6384
6.5357

6.9023
30.6384
6.5984

6.8831
30.6041
6.5984

6.8831
30.6041
6.5357


9.3821
29.5651
6.5357

9.3821
29.5651
6.5984

9.3702
29.5277
6.5984
9.3702
29.5277
6.5357


12.0277
29.0152
6.5357

12.0277
29.0152
6.5984

12.0236
28.9762
6.5984

12.0236
28.9762
6.5357


14.7298
29.0114
6.5357

14.7298
29.0114
6.5984

14.7337
28.9724
6.5928

14.7337
28.9724
6.5357


17.3769
29.5539
6.5357

17.3769
29.5539
6.5984

17.3886
29.5164
6.5984

17.3886
29.5164
6.5357


19.8597
30.6202
6.5357

19.8597
30.6202
6.5984

19.8788
30.5859
6.5984

19.8788
30.5859
6.5357


22.0758
32.1663
6.5357

22.0758
32.1663
6.5984

22.1014
32.1366
6.5984

22.1014
32.1366
6.5357


23.9336
34.1284
6.5357

23.9336
34.1284
6.5984

23.9636
34.1033
6.5984

23.9636
34.1033
6.5357


24.4249
34.7663
5.6310

24.4249
34.7663
5.6955

24.4731
34.7678
5.6955

24.4731
34.7678
5.6310


29.3426
41.1509
5.6310

29.3426
41.1509
5.6955

29.3735
41.1270
5.6955

29.3735
41.1270
5.6310