528
1860
3200
4278
3239
1237
1754
5532
6158
3569
6046
6771
3469
2965
4418
511
258
4476
7174
3901
5534
4984
6446
3750
5143
522
5608
3515
1504
1116
1982
590
6712
715
3118
1668
4234
4463
2543
6719
6519
3760
5030
3426
243
2846
57
1425
1730
1491
4821
180
1201
1208
7319
7492
3896
4077
6725
1339
4681
2475
5197
3427
696
2401
591
5249
1446
1593
2670
1174
6626
825
6825
801
3311
2461
3487
870
3305
487
6169
1762
5626
6202
2950
652
1056
4559
2577
7032
1571
2371
4329
5020
5759
6986
3566
5274
2878
3152
3731
2176
5345
4413
6638
7252
4795
4695
6706
3411
2880
3263
3399
3690
6162
6753
1606
5073
6570
1656
3381
1324
291
7555
