3
768

7

1
40.0 0.0 10.0 
10.0 
0.0 1.0 0.0
0.4 0.2 0.2 0.2
5

1
20.0 60.0 20.0 
20.0
0.0 0.0 1.0
0.2 0.2 0.4 0.2
30

1
15.0 15.0 45.0
15.0
1.0 1.0 0.0
0.4 0.3 0.1 0.2
10

1
15.0 25.0 45.0
15.0
1.0 0.0 1.0
0.4 0.3 0.1 0.2
10

1
15.0 15.0 35.0
15.0
0.0 1.0 0.0
0.4 0.3 0.1 0.2
10

1
5.0 15.0 45.0
15.0
1.0 0.0 1.0
0.4 0.3 0.1 0.2
10

2
0.0 0.0 0.0
30.0
1.0 0.0 0.0
0.4 0.2 0.1 0.3
5


2

70.0 70.0 70.0

-70.0 75.0 70.0 
